<?xml version="1.0" encoding="UTF-8" standalone="no"?>
<!-- Created with Inkscape (http://www.inkscape.org/) -->

<svg
   xmlns:dc="http://purl.org/dc/elements/1.1/"
   xmlns:cc="http://creativecommons.org/ns#"
   xmlns:rdf="http://www.w3.org/1999/02/22-rdf-syntax-ns#"
   xmlns:svg="http://www.w3.org/2000/svg"
   xmlns="http://www.w3.org/2000/svg"
   xmlns:sodipodi="http://sodipodi.sourceforge.net/DTD/sodipodi-0.dtd"
   xmlns:inkscape="http://www.inkscape.org/namespaces/inkscape"
   width="210mm"
   height="297mm"
   viewBox="0 0 210 297"
   version="1.1"
   id="svg8"
   inkscape:export-filename="G:\GuitarTuner\src\resource\jackOn.png"
   inkscape:export-xdpi="93.948929"
   inkscape:export-ydpi="93.948929"
   inkscape:version="0.92.1 r15371"
   sodipodi:docname="rysunek.svg">
  <defs
     id="defs2">
    <filter
       inkscape:menu-tooltip="3D warped, fibered wood texture"
       inkscape:menu="Materials"
       inkscape:label="3D Wood"
       height="1.5"
       y="-0.25"
       width="1.5"
       x="-0.25"
       style="color-interpolation-filters:sRGB;"
       id="filter3789">
      <feGaussianBlur
         result="result8"
         stdDeviation="4"
         id="feGaussianBlur3761" />
      <feTurbulence
         baseFrequency="0.025 0.2"
         numOctaves="3"
         type="fractalNoise"
         result="result7"
         seed="22"
         id="feTurbulence3763" />
      <feComposite
         in2="result8"
         operator="in"
         in="SourceGraphic"
         result="result6"
         id="feComposite3765" />
      <feDisplacementMap
         in2="result6"
         result="result4"
         scale="50"
         yChannelSelector="A"
         xChannelSelector="A"
         in="result7"
         id="feDisplacementMap3767" />
      <feFlood
         flood-color="rgb(230,211,138)"
         flood-opacity="1"
         id="feFlood3769" />
      <feComposite
         in2="result4"
         operator="atop"
         result="result2"
         id="feComposite3771" />
      <feComposite
         in2="SourceGraphic"
         operator="atop"
         in="result2"
         result="result9"
         id="feComposite3773" />
      <feGaussianBlur
         result="result0"
         in="result9"
         stdDeviation="8"
         id="feGaussianBlur3775" />
      <feSpecularLighting
         specularExponent="15"
         specularConstant="0.7"
         surfaceScale="5"
         lighting-color="rgb(255,255,255)"
         result="result1"
         in="result0"
         id="feSpecularLighting3779">
        <feDistantLight
           azimuth="235"
           elevation="50"
           id="feDistantLight3777" />
      </feSpecularLighting>
      <feComposite
         operator="in"
         result="result2"
         in="result1"
         in2="result9"
         id="feComposite3781" />
      <feComposite
         k3="0.5"
         k2="0.5"
         operator="arithmetic"
         result="result4"
         in="result9"
         in2="result2"
         id="feComposite3783" />
      <feConvolveMatrix
         order="3 3"
         kernelMatrix="2 0 0 0 2 0 0 0 -2 "
         targetX="2"
         targetY="2"
         result="result10"
         id="feConvolveMatrix3785" />
      <feBlend
         mode="multiply"
         in="result10"
         in2="result10"
         id="feBlend3787" />
    </filter>
    <filter
       inkscape:label="Metallized Paint"
       inkscape:menu="Materials"
       inkscape:menu-tooltip="Metallized effect with a soft lighting, slightly translucent at the edges"
       style="color-interpolation-filters:sRGB;"
       id="filter4740">
      <feGaussianBlur
         stdDeviation="1"
         result="result1"
         id="feGaussianBlur4714" />
      <feComposite
         in="result1"
         in2="result1"
         result="result4"
         operator="in"
         id="feComposite4716" />
      <feBlend
         in="result1"
         mode="screen"
         result="result5"
         in2="result4"
         id="feBlend4718" />
      <feGaussianBlur
         stdDeviation="8"
         result="result6"
         in="result5"
         id="feGaussianBlur4720" />
      <feComposite
         operator="atop"
         in="result6"
         in2="result5"
         result="result8"
         id="feComposite4722" />
      <feComposite
         operator="in"
         result="fbSourceGraphic"
         in="result6"
         in2="result8"
         id="feComposite4724" />
      <feGaussianBlur
         result="result0"
         in="fbSourceGraphic"
         stdDeviation="2.5"
         id="feGaussianBlur4726" />
      <feSpecularLighting
         specularExponent="45"
         specularConstant="1.5"
         surfaceScale="1"
         lighting-color="rgb(255,255,255)"
         result="result1"
         in="result0"
         id="feSpecularLighting4730">
        <fePointLight
           z="21000"
           y="-9000"
           x="-6000"
           id="fePointLight4728" />
      </feSpecularLighting>
      <feComposite
         operator="in"
         result="result2"
         in="result1"
         in2="fbSourceGraphic"
         id="feComposite4732" />
      <feComposite
         k3="1"
         k2="1"
         operator="arithmetic"
         result="result4"
         in="fbSourceGraphic"
         in2="result2"
         id="feComposite4734" />
      <feComposite
         operator="in"
         in="result9"
         in2="result4"
         result="result91"
         id="feComposite4736" />
      <feBlend
         mode="multiply"
         in2="result91"
         id="feBlend4738" />
    </filter>
    <filter
       inkscape:label="Metallized Paint"
       inkscape:menu="Materials"
       inkscape:menu-tooltip="Metallized effect with a soft lighting, slightly translucent at the edges"
       style="color-interpolation-filters:sRGB;"
       id="filter4911">
      <feGaussianBlur
         stdDeviation="1"
         result="result1"
         id="feGaussianBlur4885" />
      <feComposite
         in="result1"
         in2="result1"
         result="result4"
         operator="in"
         id="feComposite4887" />
      <feBlend
         in="result1"
         mode="screen"
         result="result5"
         in2="result4"
         id="feBlend4889" />
      <feGaussianBlur
         stdDeviation="8"
         result="result6"
         in="result5"
         id="feGaussianBlur4891" />
      <feComposite
         operator="atop"
         in="result6"
         in2="result5"
         result="result8"
         id="feComposite4893" />
      <feComposite
         operator="in"
         result="fbSourceGraphic"
         in="result6"
         in2="result8"
         id="feComposite4895" />
      <feGaussianBlur
         result="result0"
         in="fbSourceGraphic"
         stdDeviation="2.5"
         id="feGaussianBlur4897" />
      <feSpecularLighting
         specularExponent="45"
         specularConstant="1.5"
         surfaceScale="1"
         lighting-color="rgb(255,255,255)"
         result="result1"
         in="result0"
         id="feSpecularLighting4901">
        <fePointLight
           z="21000"
           y="-9000"
           x="-6000"
           id="fePointLight4899" />
      </feSpecularLighting>
      <feComposite
         operator="in"
         result="result2"
         in="result1"
         in2="fbSourceGraphic"
         id="feComposite4903" />
      <feComposite
         k3="1"
         k2="1"
         operator="arithmetic"
         result="result4"
         in="fbSourceGraphic"
         in2="result2"
         id="feComposite4905" />
      <feComposite
         operator="in"
         in="result9"
         in2="result4"
         result="result91"
         id="feComposite4907" />
      <feBlend
         mode="multiply"
         in2="result91"
         id="feBlend4909" />
    </filter>
    <filter
       inkscape:label="Metallized Paint"
       inkscape:menu="Materials"
       inkscape:menu-tooltip="Metallized effect with a soft lighting, slightly translucent at the edges"
       style="color-interpolation-filters:sRGB;"
       id="filter6171">
      <feGaussianBlur
         stdDeviation="1"
         result="result1"
         id="feGaussianBlur6145" />
      <feComposite
         in="result1"
         in2="result1"
         result="result4"
         operator="in"
         id="feComposite6147" />
      <feBlend
         in="result1"
         mode="screen"
         result="result5"
         in2="result4"
         id="feBlend6149" />
      <feGaussianBlur
         stdDeviation="8"
         result="result6"
         in="result5"
         id="feGaussianBlur6151" />
      <feComposite
         operator="atop"
         in="result6"
         in2="result5"
         result="result8"
         id="feComposite6153" />
      <feComposite
         operator="in"
         result="fbSourceGraphic"
         in="result6"
         in2="result8"
         id="feComposite6155" />
      <feGaussianBlur
         result="result0"
         in="fbSourceGraphic"
         stdDeviation="2.5"
         id="feGaussianBlur6157" />
      <feSpecularLighting
         specularExponent="45"
         specularConstant="1.5"
         surfaceScale="1"
         lighting-color="rgb(255,255,255)"
         result="result1"
         in="result0"
         id="feSpecularLighting6161">
        <fePointLight
           z="21000"
           y="-9000"
           x="-6000"
           id="fePointLight6159" />
      </feSpecularLighting>
      <feComposite
         operator="in"
         result="result2"
         in="result1"
         in2="fbSourceGraphic"
         id="feComposite6163" />
      <feComposite
         k3="1"
         k2="1"
         operator="arithmetic"
         result="result4"
         in="fbSourceGraphic"
         in2="result2"
         id="feComposite6165" />
      <feComposite
         operator="in"
         in="result9"
         in2="result4"
         result="result91"
         id="feComposite6167" />
      <feBlend
         mode="multiply"
         in2="result91"
         id="feBlend6169" />
    </filter>
    <filter
       inkscape:label="Metallized Paint"
       inkscape:menu="Materials"
       inkscape:menu-tooltip="Metallized effect with a soft lighting, slightly translucent at the edges"
       style="color-interpolation-filters:sRGB;"
       id="filter6199">
      <feGaussianBlur
         stdDeviation="1"
         result="result1"
         id="feGaussianBlur6173" />
      <feComposite
         in="result1"
         in2="result1"
         result="result4"
         operator="in"
         id="feComposite6175" />
      <feBlend
         in="result1"
         mode="screen"
         result="result5"
         in2="result4"
         id="feBlend6177" />
      <feGaussianBlur
         stdDeviation="8"
         result="result6"
         in="result5"
         id="feGaussianBlur6179" />
      <feComposite
         operator="atop"
         in="result6"
         in2="result5"
         result="result8"
         id="feComposite6181" />
      <feComposite
         operator="in"
         result="fbSourceGraphic"
         in="result6"
         in2="result8"
         id="feComposite6183" />
      <feGaussianBlur
         result="result0"
         in="fbSourceGraphic"
         stdDeviation="2.5"
         id="feGaussianBlur6185" />
      <feSpecularLighting
         specularExponent="45"
         specularConstant="1.5"
         surfaceScale="1"
         lighting-color="rgb(255,255,255)"
         result="result1"
         in="result0"
         id="feSpecularLighting6189">
        <fePointLight
           z="21000"
           y="-9000"
           x="-6000"
           id="fePointLight6187" />
      </feSpecularLighting>
      <feComposite
         operator="in"
         result="result2"
         in="result1"
         in2="fbSourceGraphic"
         id="feComposite6191" />
      <feComposite
         k3="1"
         k2="1"
         operator="arithmetic"
         result="result4"
         in="fbSourceGraphic"
         in2="result2"
         id="feComposite6193" />
      <feComposite
         operator="in"
         in="result9"
         in2="result4"
         result="result91"
         id="feComposite6195" />
      <feBlend
         mode="multiply"
         in2="result91"
         id="feBlend6197" />
    </filter>
    <filter
       inkscape:label="Metallized Paint"
       inkscape:menu="Materials"
       inkscape:menu-tooltip="Metallized effect with a soft lighting, slightly translucent at the edges"
       style="color-interpolation-filters:sRGB;"
       id="filter6227">
      <feGaussianBlur
         stdDeviation="1"
         result="result1"
         id="feGaussianBlur6201" />
      <feComposite
         in="result1"
         in2="result1"
         result="result4"
         operator="in"
         id="feComposite6203" />
      <feBlend
         in="result1"
         mode="screen"
         result="result5"
         in2="result4"
         id="feBlend6205" />
      <feGaussianBlur
         stdDeviation="8"
         result="result6"
         in="result5"
         id="feGaussianBlur6207" />
      <feComposite
         operator="atop"
         in="result6"
         in2="result5"
         result="result8"
         id="feComposite6209" />
      <feComposite
         operator="in"
         result="fbSourceGraphic"
         in="result6"
         in2="result8"
         id="feComposite6211" />
      <feGaussianBlur
         result="result0"
         in="fbSourceGraphic"
         stdDeviation="2.5"
         id="feGaussianBlur6213" />
      <feSpecularLighting
         specularExponent="45"
         specularConstant="1.5"
         surfaceScale="1"
         lighting-color="rgb(255,255,255)"
         result="result1"
         in="result0"
         id="feSpecularLighting6217">
        <fePointLight
           z="21000"
           y="-9000"
           x="-6000"
           id="fePointLight6215" />
      </feSpecularLighting>
      <feComposite
         operator="in"
         result="result2"
         in="result1"
         in2="fbSourceGraphic"
         id="feComposite6219" />
      <feComposite
         k3="1"
         k2="1"
         operator="arithmetic"
         result="result4"
         in="fbSourceGraphic"
         in2="result2"
         id="feComposite6221" />
      <feComposite
         operator="in"
         in="result9"
         in2="result4"
         result="result91"
         id="feComposite6223" />
      <feBlend
         mode="multiply"
         in2="result91"
         id="feBlend6225" />
    </filter>
    <filter
       inkscape:label="Metallized Paint"
       inkscape:menu="Materials"
       inkscape:menu-tooltip="Metallized effect with a soft lighting, slightly translucent at the edges"
       style="color-interpolation-filters:sRGB;"
       id="filter6255">
      <feGaussianBlur
         stdDeviation="1"
         result="result1"
         id="feGaussianBlur6229" />
      <feComposite
         in="result1"
         in2="result1"
         result="result4"
         operator="in"
         id="feComposite6231" />
      <feBlend
         in="result1"
         mode="screen"
         result="result5"
         in2="result4"
         id="feBlend6233" />
      <feGaussianBlur
         stdDeviation="8"
         result="result6"
         in="result5"
         id="feGaussianBlur6235" />
      <feComposite
         operator="atop"
         in="result6"
         in2="result5"
         result="result8"
         id="feComposite6237" />
      <feComposite
         operator="in"
         result="fbSourceGraphic"
         in="result6"
         in2="result8"
         id="feComposite6239" />
      <feGaussianBlur
         result="result0"
         in="fbSourceGraphic"
         stdDeviation="2.5"
         id="feGaussianBlur6241" />
      <feSpecularLighting
         specularExponent="45"
         specularConstant="1.5"
         surfaceScale="1"
         lighting-color="rgb(255,255,255)"
         result="result1"
         in="result0"
         id="feSpecularLighting6245">
        <fePointLight
           z="21000"
           y="-9000"
           x="-6000"
           id="fePointLight6243" />
      </feSpecularLighting>
      <feComposite
         operator="in"
         result="result2"
         in="result1"
         in2="fbSourceGraphic"
         id="feComposite6247" />
      <feComposite
         k3="1"
         k2="1"
         operator="arithmetic"
         result="result4"
         in="fbSourceGraphic"
         in2="result2"
         id="feComposite6249" />
      <feComposite
         operator="in"
         in="result9"
         in2="result4"
         result="result91"
         id="feComposite6251" />
      <feBlend
         mode="multiply"
         in2="result91"
         id="feBlend6253" />
    </filter>
    <filter
       inkscape:label="Metallized Paint"
       inkscape:menu="Materials"
       inkscape:menu-tooltip="Metallized effect with a soft lighting, slightly translucent at the edges"
       style="color-interpolation-filters:sRGB;"
       id="filter6283">
      <feGaussianBlur
         stdDeviation="1"
         result="result1"
         id="feGaussianBlur6257" />
      <feComposite
         in="result1"
         in2="result1"
         result="result4"
         operator="in"
         id="feComposite6259" />
      <feBlend
         in="result1"
         mode="screen"
         result="result5"
         in2="result4"
         id="feBlend6261" />
      <feGaussianBlur
         stdDeviation="8"
         result="result6"
         in="result5"
         id="feGaussianBlur6263" />
      <feComposite
         operator="atop"
         in="result6"
         in2="result5"
         result="result8"
         id="feComposite6265" />
      <feComposite
         operator="in"
         result="fbSourceGraphic"
         in="result6"
         in2="result8"
         id="feComposite6267" />
      <feGaussianBlur
         result="result0"
         in="fbSourceGraphic"
         stdDeviation="2.5"
         id="feGaussianBlur6269" />
      <feSpecularLighting
         specularExponent="45"
         specularConstant="1.5"
         surfaceScale="1"
         lighting-color="rgb(255,255,255)"
         result="result1"
         in="result0"
         id="feSpecularLighting6273">
        <fePointLight
           z="21000"
           y="-9000"
           x="-6000"
           id="fePointLight6271" />
      </feSpecularLighting>
      <feComposite
         operator="in"
         result="result2"
         in="result1"
         in2="fbSourceGraphic"
         id="feComposite6275" />
      <feComposite
         k3="1"
         k2="1"
         operator="arithmetic"
         result="result4"
         in="fbSourceGraphic"
         in2="result2"
         id="feComposite6277" />
      <feComposite
         operator="in"
         in="result9"
         in2="result4"
         result="result91"
         id="feComposite6279" />
      <feBlend
         mode="multiply"
         in2="result91"
         id="feBlend6281" />
    </filter>
    <filter
       inkscape:label="Metallized Paint"
       inkscape:menu="Materials"
       inkscape:menu-tooltip="Metallized effect with a soft lighting, slightly translucent at the edges"
       style="color-interpolation-filters:sRGB;"
       id="filter6311">
      <feGaussianBlur
         stdDeviation="1"
         result="result1"
         id="feGaussianBlur6285" />
      <feComposite
         in="result1"
         in2="result1"
         result="result4"
         operator="in"
         id="feComposite6287" />
      <feBlend
         in="result1"
         mode="screen"
         result="result5"
         in2="result4"
         id="feBlend6289" />
      <feGaussianBlur
         stdDeviation="8"
         result="result6"
         in="result5"
         id="feGaussianBlur6291" />
      <feComposite
         operator="atop"
         in="result6"
         in2="result5"
         result="result8"
         id="feComposite6293" />
      <feComposite
         operator="in"
         result="fbSourceGraphic"
         in="result6"
         in2="result8"
         id="feComposite6295" />
      <feGaussianBlur
         result="result0"
         in="fbSourceGraphic"
         stdDeviation="2.5"
         id="feGaussianBlur6297" />
      <feSpecularLighting
         specularExponent="45"
         specularConstant="1.5"
         surfaceScale="1"
         lighting-color="rgb(255,255,255)"
         result="result1"
         in="result0"
         id="feSpecularLighting6301">
        <fePointLight
           z="21000"
           y="-9000"
           x="-6000"
           id="fePointLight6299" />
      </feSpecularLighting>
      <feComposite
         operator="in"
         result="result2"
         in="result1"
         in2="fbSourceGraphic"
         id="feComposite6303" />
      <feComposite
         k3="1"
         k2="1"
         operator="arithmetic"
         result="result4"
         in="fbSourceGraphic"
         in2="result2"
         id="feComposite6305" />
      <feComposite
         operator="in"
         in="result9"
         in2="result4"
         result="result91"
         id="feComposite6307" />
      <feBlend
         mode="multiply"
         in2="result91"
         id="feBlend6309" />
    </filter>
    <filter
       inkscape:label="Metallized Paint"
       inkscape:menu="Materials"
       inkscape:menu-tooltip="Metallized effect with a soft lighting, slightly translucent at the edges"
       style="color-interpolation-filters:sRGB;"
       id="filter6339">
      <feGaussianBlur
         stdDeviation="1"
         result="result1"
         id="feGaussianBlur6313" />
      <feComposite
         in="result1"
         in2="result1"
         result="result4"
         operator="in"
         id="feComposite6315" />
      <feBlend
         in="result1"
         mode="screen"
         result="result5"
         in2="result4"
         id="feBlend6317" />
      <feGaussianBlur
         stdDeviation="8"
         result="result6"
         in="result5"
         id="feGaussianBlur6319" />
      <feComposite
         operator="atop"
         in="result6"
         in2="result5"
         result="result8"
         id="feComposite6321" />
      <feComposite
         operator="in"
         result="fbSourceGraphic"
         in="result6"
         in2="result8"
         id="feComposite6323" />
      <feGaussianBlur
         result="result0"
         in="fbSourceGraphic"
         stdDeviation="2.5"
         id="feGaussianBlur6325" />
      <feSpecularLighting
         specularExponent="45"
         specularConstant="1.5"
         surfaceScale="1"
         lighting-color="rgb(255,255,255)"
         result="result1"
         in="result0"
         id="feSpecularLighting6329">
        <fePointLight
           z="21000"
           y="-9000"
           x="-6000"
           id="fePointLight6327" />
      </feSpecularLighting>
      <feComposite
         operator="in"
         result="result2"
         in="result1"
         in2="fbSourceGraphic"
         id="feComposite6331" />
      <feComposite
         k3="1"
         k2="1"
         operator="arithmetic"
         result="result4"
         in="fbSourceGraphic"
         in2="result2"
         id="feComposite6333" />
      <feComposite
         operator="in"
         in="result9"
         in2="result4"
         result="result91"
         id="feComposite6335" />
      <feBlend
         mode="multiply"
         in2="result91"
         id="feBlend6337" />
    </filter>
    <filter
       inkscape:label="Metallized Paint"
       inkscape:menu="Materials"
       inkscape:menu-tooltip="Metallized effect with a soft lighting, slightly translucent at the edges"
       style="color-interpolation-filters:sRGB;"
       id="filter6367">
      <feGaussianBlur
         stdDeviation="1"
         result="result1"
         id="feGaussianBlur6341" />
      <feComposite
         in="result1"
         in2="result1"
         result="result4"
         operator="in"
         id="feComposite6343" />
      <feBlend
         in="result1"
         mode="screen"
         result="result5"
         in2="result4"
         id="feBlend6345" />
      <feGaussianBlur
         stdDeviation="8"
         result="result6"
         in="result5"
         id="feGaussianBlur6347" />
      <feComposite
         operator="atop"
         in="result6"
         in2="result5"
         result="result8"
         id="feComposite6349" />
      <feComposite
         operator="in"
         result="fbSourceGraphic"
         in="result6"
         in2="result8"
         id="feComposite6351" />
      <feGaussianBlur
         result="result0"
         in="fbSourceGraphic"
         stdDeviation="2.5"
         id="feGaussianBlur6353" />
      <feSpecularLighting
         specularExponent="45"
         specularConstant="1.5"
         surfaceScale="1"
         lighting-color="rgb(255,255,255)"
         result="result1"
         in="result0"
         id="feSpecularLighting6357">
        <fePointLight
           z="21000"
           y="-9000"
           x="-6000"
           id="fePointLight6355" />
      </feSpecularLighting>
      <feComposite
         operator="in"
         result="result2"
         in="result1"
         in2="fbSourceGraphic"
         id="feComposite6359" />
      <feComposite
         k3="1"
         k2="1"
         operator="arithmetic"
         result="result4"
         in="fbSourceGraphic"
         in2="result2"
         id="feComposite6361" />
      <feComposite
         operator="in"
         in="result9"
         in2="result4"
         result="result91"
         id="feComposite6363" />
      <feBlend
         mode="multiply"
         in2="result91"
         id="feBlend6365" />
    </filter>
    <filter
       inkscape:label="Metallized Paint"
       inkscape:menu="Materials"
       inkscape:menu-tooltip="Metallized effect with a soft lighting, slightly translucent at the edges"
       style="color-interpolation-filters:sRGB"
       id="filter6171-4">
      <feGaussianBlur
         stdDeviation="1"
         result="result1"
         id="feGaussianBlur6145-1" />
      <feComposite
         in="result1"
         in2="result1"
         result="result4"
         operator="in"
         id="feComposite6147-3" />
      <feBlend
         in="result1"
         mode="screen"
         result="result5"
         in2="result4"
         id="feBlend6149-6" />
      <feGaussianBlur
         stdDeviation="8"
         result="result6"
         in="result5"
         id="feGaussianBlur6151-7" />
      <feComposite
         operator="atop"
         in="result6"
         in2="result5"
         result="result8"
         id="feComposite6153-5" />
      <feComposite
         operator="in"
         result="fbSourceGraphic"
         in="result6"
         in2="result8"
         id="feComposite6155-0" />
      <feGaussianBlur
         result="result0"
         in="fbSourceGraphic"
         stdDeviation="2.5"
         id="feGaussianBlur6157-7" />
      <feSpecularLighting
         specularExponent="45"
         specularConstant="1.5"
         surfaceScale="1"
         lighting-color="#ffffff"
         result="result1"
         in="result0"
         id="feSpecularLighting6161-9">
        <fePointLight
           z="21000"
           y="-9000"
           x="-6000"
           id="fePointLight6159-7" />
      </feSpecularLighting>
      <feComposite
         operator="in"
         result="result2"
         in="result1"
         in2="fbSourceGraphic"
         id="feComposite6163-4" />
      <feComposite
         k4="0"
         k1="0"
         k3="1"
         k2="1"
         operator="arithmetic"
         result="result4"
         in="fbSourceGraphic"
         in2="result2"
         id="feComposite6165-1" />
      <feComposite
         operator="in"
         in2="result4"
         result="result91"
         id="feComposite6167-6" />
      <feBlend
         mode="multiply"
         in2="result91"
         id="feBlend6169-8" />
    </filter>
    <filter
       inkscape:label="Metallized Paint"
       inkscape:menu="Materials"
       inkscape:menu-tooltip="Metallized effect with a soft lighting, slightly translucent at the edges"
       style="color-interpolation-filters:sRGB"
       id="filter6171-1">
      <feGaussianBlur
         stdDeviation="1"
         result="result1"
         id="feGaussianBlur6145-7" />
      <feComposite
         in="result1"
         in2="result1"
         result="result4"
         operator="in"
         id="feComposite6147-1" />
      <feBlend
         in="result1"
         mode="screen"
         result="result5"
         in2="result4"
         id="feBlend6149-62" />
      <feGaussianBlur
         stdDeviation="8"
         result="result6"
         in="result5"
         id="feGaussianBlur6151-6" />
      <feComposite
         operator="atop"
         in="result6"
         in2="result5"
         result="result8"
         id="feComposite6153-7" />
      <feComposite
         operator="in"
         result="fbSourceGraphic"
         in="result6"
         in2="result8"
         id="feComposite6155-07" />
      <feGaussianBlur
         result="result0"
         in="fbSourceGraphic"
         stdDeviation="2.5"
         id="feGaussianBlur6157-4" />
      <feSpecularLighting
         specularExponent="45"
         specularConstant="1.5"
         surfaceScale="1"
         lighting-color="#ffffff"
         result="result1"
         in="result0"
         id="feSpecularLighting6161-6">
        <fePointLight
           z="21000"
           y="-9000"
           x="-6000"
           id="fePointLight6159-6" />
      </feSpecularLighting>
      <feComposite
         operator="in"
         result="result2"
         in="result1"
         in2="fbSourceGraphic"
         id="feComposite6163-46" />
      <feComposite
         k4="0"
         k1="0"
         k3="1"
         k2="1"
         operator="arithmetic"
         result="result4"
         in="fbSourceGraphic"
         in2="result2"
         id="feComposite6165-3" />
      <feComposite
         operator="in"
         in2="result4"
         result="result91"
         id="feComposite6167-9" />
      <feBlend
         mode="multiply"
         in2="result91"
         id="feBlend6169-3" />
    </filter>
    <filter
       inkscape:label="Metallized Paint"
       inkscape:menu="Materials"
       inkscape:menu-tooltip="Metallized effect with a soft lighting, slightly translucent at the edges"
       style="color-interpolation-filters:sRGB"
       id="filter6171-3">
      <feGaussianBlur
         stdDeviation="1"
         result="result1"
         id="feGaussianBlur6145-10" />
      <feComposite
         in="result1"
         in2="result1"
         result="result4"
         operator="in"
         id="feComposite6147-7" />
      <feBlend
         in="result1"
         mode="screen"
         result="result5"
         in2="result4"
         id="feBlend6149-2" />
      <feGaussianBlur
         stdDeviation="8"
         result="result6"
         in="result5"
         id="feGaussianBlur6151-4" />
      <feComposite
         operator="atop"
         in="result6"
         in2="result5"
         result="result8"
         id="feComposite6153-2" />
      <feComposite
         operator="in"
         result="fbSourceGraphic"
         in="result6"
         in2="result8"
         id="feComposite6155-5" />
      <feGaussianBlur
         result="result0"
         in="fbSourceGraphic"
         stdDeviation="2.5"
         id="feGaussianBlur6157-9" />
      <feSpecularLighting
         specularExponent="45"
         specularConstant="1.5"
         surfaceScale="1"
         lighting-color="#ffffff"
         result="result1"
         in="result0"
         id="feSpecularLighting6161-3">
        <fePointLight
           z="21000"
           y="-9000"
           x="-6000"
           id="fePointLight6159-61" />
      </feSpecularLighting>
      <feComposite
         operator="in"
         result="result2"
         in="result1"
         in2="fbSourceGraphic"
         id="feComposite6163-1" />
      <feComposite
         k4="0"
         k1="0"
         k3="1"
         k2="1"
         operator="arithmetic"
         result="result4"
         in="fbSourceGraphic"
         in2="result2"
         id="feComposite6165-15" />
      <feComposite
         operator="in"
         in2="result4"
         result="result91"
         id="feComposite6167-3" />
      <feBlend
         mode="multiply"
         in2="result91"
         id="feBlend6169-1" />
    </filter>
    <filter
       inkscape:label="Metallized Paint"
       inkscape:menu="Materials"
       inkscape:menu-tooltip="Metallized effect with a soft lighting, slightly translucent at the edges"
       style="color-interpolation-filters:sRGB"
       id="filter6171-1-7">
      <feGaussianBlur
         stdDeviation="1"
         result="result1"
         id="feGaussianBlur6145-7-6" />
      <feComposite
         in="result1"
         in2="result1"
         result="result4"
         operator="in"
         id="feComposite6147-1-0" />
      <feBlend
         in="result1"
         mode="screen"
         result="result5"
         in2="result4"
         id="feBlend6149-62-3" />
      <feGaussianBlur
         stdDeviation="8"
         result="result6"
         in="result5"
         id="feGaussianBlur6151-6-4" />
      <feComposite
         operator="atop"
         in="result6"
         in2="result5"
         result="result8"
         id="feComposite6153-7-2" />
      <feComposite
         operator="in"
         result="fbSourceGraphic"
         in="result6"
         in2="result8"
         id="feComposite6155-07-4" />
      <feGaussianBlur
         result="result0"
         in="fbSourceGraphic"
         stdDeviation="2.5"
         id="feGaussianBlur6157-4-2" />
      <feSpecularLighting
         specularExponent="45"
         specularConstant="1.5"
         surfaceScale="1"
         lighting-color="#ffffff"
         result="result1"
         in="result0"
         id="feSpecularLighting6161-6-4">
        <fePointLight
           z="21000"
           y="-9000"
           x="-6000"
           id="fePointLight6159-6-6" />
      </feSpecularLighting>
      <feComposite
         operator="in"
         result="result2"
         in="result1"
         in2="fbSourceGraphic"
         id="feComposite6163-46-4" />
      <feComposite
         k4="0"
         k1="0"
         k3="1"
         k2="1"
         operator="arithmetic"
         result="result4"
         in="fbSourceGraphic"
         in2="result2"
         id="feComposite6165-3-7" />
      <feComposite
         operator="in"
         in2="result4"
         result="result91"
         id="feComposite6167-9-5" />
      <feBlend
         mode="multiply"
         in2="result91"
         id="feBlend6169-3-0" />
    </filter>
    <filter
       inkscape:label="Metallized Paint"
       inkscape:menu="Materials"
       inkscape:menu-tooltip="Metallized effect with a soft lighting, slightly translucent at the edges"
       style="color-interpolation-filters:sRGB"
       id="filter6171-4-7">
      <feGaussianBlur
         stdDeviation="1"
         result="result1"
         id="feGaussianBlur6145-1-1" />
      <feComposite
         in="result1"
         in2="result1"
         result="result4"
         operator="in"
         id="feComposite6147-3-0" />
      <feBlend
         in="result1"
         mode="screen"
         result="result5"
         in2="result4"
         id="feBlend6149-6-6" />
      <feGaussianBlur
         stdDeviation="8"
         result="result6"
         in="result5"
         id="feGaussianBlur6151-7-3" />
      <feComposite
         operator="atop"
         in="result6"
         in2="result5"
         result="result8"
         id="feComposite6153-5-9" />
      <feComposite
         operator="in"
         result="fbSourceGraphic"
         in="result6"
         in2="result8"
         id="feComposite6155-0-9" />
      <feGaussianBlur
         result="result0"
         in="fbSourceGraphic"
         stdDeviation="2.5"
         id="feGaussianBlur6157-7-8" />
      <feSpecularLighting
         specularExponent="45"
         specularConstant="1.5"
         surfaceScale="1"
         lighting-color="#ffffff"
         result="result1"
         in="result0"
         id="feSpecularLighting6161-9-3">
        <fePointLight
           z="21000"
           y="-9000"
           x="-6000"
           id="fePointLight6159-7-9" />
      </feSpecularLighting>
      <feComposite
         operator="in"
         result="result2"
         in="result1"
         in2="fbSourceGraphic"
         id="feComposite6163-4-0" />
      <feComposite
         k4="0"
         k1="0"
         k3="1"
         k2="1"
         operator="arithmetic"
         result="result4"
         in="fbSourceGraphic"
         in2="result2"
         id="feComposite6165-1-5" />
      <feComposite
         operator="in"
         in2="result4"
         result="result91"
         id="feComposite6167-6-9" />
      <feBlend
         mode="multiply"
         in2="result91"
         id="feBlend6169-8-5" />
    </filter>
    <filter
       inkscape:label="Metallized Paint"
       inkscape:menu="Materials"
       inkscape:menu-tooltip="Metallized effect with a soft lighting, slightly translucent at the edges"
       style="color-interpolation-filters:sRGB"
       id="filter6171-7">
      <feGaussianBlur
         stdDeviation="1"
         result="result1"
         id="feGaussianBlur6145-71" />
      <feComposite
         in="result1"
         in2="result1"
         result="result4"
         operator="in"
         id="feComposite6147-10" />
      <feBlend
         in="result1"
         mode="screen"
         result="result5"
         in2="result4"
         id="feBlend6149-0" />
      <feGaussianBlur
         stdDeviation="8"
         result="result6"
         in="result5"
         id="feGaussianBlur6151-9" />
      <feComposite
         operator="atop"
         in="result6"
         in2="result5"
         result="result8"
         id="feComposite6153-71" />
      <feComposite
         operator="in"
         result="fbSourceGraphic"
         in="result6"
         in2="result8"
         id="feComposite6155-4" />
      <feGaussianBlur
         result="result0"
         in="fbSourceGraphic"
         stdDeviation="2.5"
         id="feGaussianBlur6157-0" />
      <feSpecularLighting
         specularExponent="45"
         specularConstant="1.5"
         surfaceScale="1"
         lighting-color="#ffffff"
         result="result1"
         in="result0"
         id="feSpecularLighting6161-8">
        <fePointLight
           z="21000"
           y="-9000"
           x="-6000"
           id="fePointLight6159-1" />
      </feSpecularLighting>
      <feComposite
         operator="in"
         result="result2"
         in="result1"
         in2="fbSourceGraphic"
         id="feComposite6163-0" />
      <feComposite
         k4="0"
         k1="0"
         k3="1"
         k2="1"
         operator="arithmetic"
         result="result4"
         in="fbSourceGraphic"
         in2="result2"
         id="feComposite6165-8" />
      <feComposite
         operator="in"
         in2="result4"
         result="result91"
         id="feComposite6167-1" />
      <feBlend
         mode="multiply"
         in2="result91"
         id="feBlend6169-7" />
    </filter>
    <filter
       inkscape:label="Metallized Paint"
       inkscape:menu="Materials"
       inkscape:menu-tooltip="Metallized effect with a soft lighting, slightly translucent at the edges"
       style="color-interpolation-filters:sRGB"
       id="filter6171-1-7-6">
      <feGaussianBlur
         stdDeviation="1"
         result="result1"
         id="feGaussianBlur6145-7-6-4" />
      <feComposite
         in="result1"
         in2="result1"
         result="result4"
         operator="in"
         id="feComposite6147-1-0-1" />
      <feBlend
         in="result1"
         mode="screen"
         result="result5"
         in2="result4"
         id="feBlend6149-62-3-6" />
      <feGaussianBlur
         stdDeviation="8"
         result="result6"
         in="result5"
         id="feGaussianBlur6151-6-4-2" />
      <feComposite
         operator="atop"
         in="result6"
         in2="result5"
         result="result8"
         id="feComposite6153-7-2-9" />
      <feComposite
         operator="in"
         result="fbSourceGraphic"
         in="result6"
         in2="result8"
         id="feComposite6155-07-4-7" />
      <feGaussianBlur
         result="result0"
         in="fbSourceGraphic"
         stdDeviation="2.5"
         id="feGaussianBlur6157-4-2-6" />
      <feSpecularLighting
         specularExponent="45"
         specularConstant="1.5"
         surfaceScale="1"
         lighting-color="#ffffff"
         result="result1"
         in="result0"
         id="feSpecularLighting6161-6-4-9">
        <fePointLight
           z="21000"
           y="-9000"
           x="-6000"
           id="fePointLight6159-6-6-2" />
      </feSpecularLighting>
      <feComposite
         operator="in"
         result="result2"
         in="result1"
         in2="fbSourceGraphic"
         id="feComposite6163-46-4-7" />
      <feComposite
         k4="0"
         k1="0"
         k3="1"
         k2="1"
         operator="arithmetic"
         result="result4"
         in="fbSourceGraphic"
         in2="result2"
         id="feComposite6165-3-7-0" />
      <feComposite
         operator="in"
         in2="result4"
         result="result91"
         id="feComposite6167-9-5-2" />
      <feBlend
         mode="multiply"
         in2="result91"
         id="feBlend6169-3-0-8" />
    </filter>
    <filter
       inkscape:label="Metallized Paint"
       inkscape:menu="Materials"
       inkscape:menu-tooltip="Metallized effect with a soft lighting, slightly translucent at the edges"
       style="color-interpolation-filters:sRGB"
       id="filter4740-7">
      <feGaussianBlur
         stdDeviation="1"
         result="result1"
         id="feGaussianBlur4714-8" />
      <feComposite
         in="result1"
         in2="result1"
         result="result4"
         operator="in"
         id="feComposite4716-7" />
      <feBlend
         in="result1"
         mode="screen"
         result="result5"
         in2="result4"
         id="feBlend4718-5" />
      <feGaussianBlur
         stdDeviation="8"
         result="result6"
         in="result5"
         id="feGaussianBlur4720-5" />
      <feComposite
         operator="atop"
         in="result6"
         in2="result5"
         result="result8"
         id="feComposite4722-3" />
      <feComposite
         operator="in"
         result="fbSourceGraphic"
         in="result6"
         in2="result8"
         id="feComposite4724-1" />
      <feGaussianBlur
         result="result0"
         in="fbSourceGraphic"
         stdDeviation="2.5"
         id="feGaussianBlur4726-6" />
      <feSpecularLighting
         specularExponent="45"
         specularConstant="1.5"
         surfaceScale="1"
         lighting-color="#ffffff"
         result="result1"
         in="result0"
         id="feSpecularLighting4730-5">
        <fePointLight
           z="21000"
           y="-9000"
           x="-6000"
           id="fePointLight4728-1" />
      </feSpecularLighting>
      <feComposite
         operator="in"
         result="result2"
         in="result1"
         in2="fbSourceGraphic"
         id="feComposite4732-2" />
      <feComposite
         k4="0"
         k1="0"
         k3="1"
         k2="1"
         operator="arithmetic"
         result="result4"
         in="fbSourceGraphic"
         in2="result2"
         id="feComposite4734-7" />
      <feComposite
         operator="in"
         in2="result4"
         result="result91"
         id="feComposite4736-7" />
      <feBlend
         mode="multiply"
         in2="result91"
         id="feBlend4738-8" />
    </filter>
  </defs>
  <sodipodi:namedview
     id="base"
     pagecolor="#ffffff"
     bordercolor="#666666"
     borderopacity="1.0"
     inkscape:pageopacity="0.0"
     inkscape:pageshadow="2"
     inkscape:zoom="0.24748737"
     inkscape:cx="-2541.9855"
     inkscape:cy="212.81207"
     inkscape:document-units="mm"
     inkscape:current-layer="layer1"
     showgrid="false"
     inkscape:window-width="1920"
     inkscape:window-height="1017"
     inkscape:window-x="-8"
     inkscape:window-y="-8"
     inkscape:window-maximized="1" />
  <metadata
     id="metadata5">
    <rdf:RDF>
      <cc:Work
         rdf:about="">
        <dc:format>image/svg+xml</dc:format>
        <dc:type
           rdf:resource="http://purl.org/dc/dcmitype/StillImage" />
        <dc:title></dc:title>
      </cc:Work>
    </rdf:RDF>
  </metadata>
  <g
     inkscape:label="Layer 1"
     inkscape:groupmode="layer"
     id="layer1">
    <rect
       style="fill:#552200;fill-opacity:1;stroke-width:0.26458332"
       id="rect6378"
       width="211.66667"
       height="127"
       x="-489.63776"
       y="-214.01933" />
    <rect
       id="rect3759"
       width="211.66667"
       height="127"
       x="-1.5119164"
       y="29.392853"
       style="fill:#ffe6d5;stroke-width:0.12855414;filter:url(#filter3789)"
       transform="matrix(0.996286,0.00509756,0,1.0155805,-345.92406,-56.110644)" />
    <g
       id="g3797"
       style="fill:#2b1100;filter:url(#filter4740)"
       transform="matrix(0.41220466,0,0,0.28033076,-287.30574,-31.518912)">
      <rect
         y="303.48505"
         x="-40.713982"
         height="99.668427"
         width="301.29761"
         id="rect3791"
         style="fill:#2b1100;stroke-width:0.58277428" />
      <path
         d="M 224.08363,394.53027 A 114.14881,61.219704 0 0 1 163.34646,448.63471 114.14881,61.219704 0 0 1 45.769946,445.16254 114.14881,61.219704 0 0 1 -3.5238977,387.80877 l 113.4587177,6.7215 z"
         sodipodi:end="3.2516076"
         sodipodi:start="0"
         sodipodi:ry="61.219704"
         sodipodi:rx="114.14881"
         sodipodi:cy="394.53027"
         sodipodi:cx="109.93482"
         sodipodi:type="arc"
         id="path3793"
         style="fill:#2b1100;stroke-width:0.3467443" />
    </g>
    <rect
       style="fill:#1a1a1a;fill-opacity:1;stroke:#000000;stroke-width:0.26458332;filter:url(#filter4911)"
       id="rect4767"
       width="352.2738"
       height="155.72618"
       x="-67.887764"
       y="-205.08684"
       transform="matrix(0.42539875,0,0,0.39736109,-294.08676,63.234535)" />
    <g
       id="g6376"
       transform="matrix(1.0057771,0,0,0.9994757,-346.20858,-364.6934)">
      <path
         d="m -28.277541,604.65814 a 15.86123,18.174328 0 0 1 -15.838941,18.17431 15.86123,18.174328 0 0 1 -15.883456,-18.12323 15.86123,18.174328 0 0 1 15.794299,-18.22524 15.86123,18.174328 0 0 1 15.927847,18.072 l -15.860979,0.10216 z"
         sodipodi:end="6.2775642"
         sodipodi:start="0"
         sodipodi:ry="18.174328"
         sodipodi:rx="15.86123"
         sodipodi:cy="604.65814"
         sodipodi:cx="-44.138771"
         sodipodi:type="arc"
         id="path4915"
         style="fill:#c8beb7;fill-opacity:1;stroke-width:0.64645344;filter:url(#filter6367)" />
      <path
         d="M 21.72246,604.65814 A 15.86123,18.174328 0 0 1 5.8835193,622.83245 15.86123,18.174328 0 0 1 -9.9999374,604.70922 15.86123,18.174328 0 0 1 5.7943618,586.48398 a 15.86123,18.174328 0 0 1 15.9278472,18.072 l -15.8609791,0.10216 z"
         sodipodi:end="6.2775642"
         sodipodi:start="0"
         sodipodi:ry="18.174328"
         sodipodi:rx="15.86123"
         sodipodi:cy="604.65814"
         sodipodi:cx="5.8612299"
         sodipodi:type="arc"
         id="path4915-6"
         style="fill:#c8beb7;fill-opacity:1;stroke-width:0.64645344;filter:url(#filter6339)" />
      <path
         d="m 121.72246,604.65814 a 15.86123,18.174328 0 0 1 -15.83894,18.17431 15.86123,18.174328 0 0 1 -15.883458,-18.12323 15.86123,18.174328 0 0 1 15.794298,-18.22524 15.86123,18.174328 0 0 1 15.92785,18.072 l -15.86098,0.10216 z"
         sodipodi:end="6.2775642"
         sodipodi:start="0"
         sodipodi:ry="18.174328"
         sodipodi:rx="15.86123"
         sodipodi:cy="604.65814"
         sodipodi:cx="105.86123"
         sodipodi:type="arc"
         id="path4915-7"
         style="fill:#c8beb7;fill-opacity:1;stroke-width:0.64645344;filter:url(#filter6311)" />
      <path
         d="m 71.722459,604.65814 a 15.86123,18.174328 0 0 1 -15.838941,18.17431 15.86123,18.174328 0 0 1 -15.883456,-18.12323 15.86123,18.174328 0 0 1 15.794299,-18.22524 15.86123,18.174328 0 0 1 15.927847,18.072 l -15.860979,0.10216 z"
         sodipodi:end="6.2775642"
         sodipodi:start="0"
         sodipodi:ry="18.174328"
         sodipodi:rx="15.86123"
         sodipodi:cy="604.65814"
         sodipodi:cx="55.861229"
         sodipodi:type="arc"
         id="path4915-0"
         style="fill:#c8beb7;fill-opacity:1;stroke-width:0.64645344;filter:url(#filter6283)" />
      <path
         d="m 171.72247,604.65814 a 15.86123,18.174328 0 0 1 -15.83894,18.17431 15.86123,18.174328 0 0 1 -15.88346,-18.12323 15.86123,18.174328 0 0 1 15.7943,-18.22524 15.86123,18.174328 0 0 1 15.92785,18.072 l -15.86098,0.10216 z"
         sodipodi:end="6.2775642"
         sodipodi:start="0"
         sodipodi:ry="18.174328"
         sodipodi:rx="15.86123"
         sodipodi:cy="604.65814"
         sodipodi:cx="155.86124"
         sodipodi:type="arc"
         id="path4915-77"
         style="fill:#c8beb7;fill-opacity:1;stroke-width:0.64645344;filter:url(#filter6255)" />
      <path
         d="m 221.72247,604.65814 a 15.86123,18.174328 0 0 1 -15.83894,18.17431 15.86123,18.174328 0 0 1 -15.88346,-18.12323 15.86123,18.174328 0 0 1 15.7943,-18.22524 15.86123,18.174328 0 0 1 15.92785,18.072 l -15.86098,0.10216 z"
         sodipodi:end="6.2775642"
         sodipodi:start="0"
         sodipodi:ry="18.174328"
         sodipodi:rx="15.86123"
         sodipodi:cy="604.65814"
         sodipodi:cx="205.86124"
         sodipodi:type="arc"
         id="path4915-8"
         style="fill:#c8beb7;fill-opacity:1;stroke-width:0.64645344;filter:url(#filter6227)" />
      <path
         d="m 271.72247,604.65814 a 15.86123,18.174328 0 0 1 -15.83894,18.17431 15.86123,18.174328 0 0 1 -15.88346,-18.12323 15.86123,18.174328 0 0 1 15.7943,-18.22524 15.86123,18.174328 0 0 1 15.92785,18.072 l -15.86098,0.10216 z"
         sodipodi:end="6.2775642"
         sodipodi:start="0"
         sodipodi:ry="18.174328"
         sodipodi:rx="15.86123"
         sodipodi:cy="604.65814"
         sodipodi:cx="255.86124"
         sodipodi:type="arc"
         id="path4915-8-7"
         style="fill:#c8beb7;fill-opacity:1;stroke-width:0.64645344;filter:url(#filter6199)" />
    </g>
    <rect
       style="fill:none;fill-opacity:1;stroke-width:0.26458332"
       id="rect6420"
       width="210.88054"
       height="130.05771"
       x="-347.43036"
       y="-26.267542" />
    <rect
       style="fill:none;fill-opacity:1;stroke-width:0.26458332"
       id="rect6424"
       width="210.88054"
       height="130.05771"
       x="-347.43033"
       y="-26.267542"
       inkscape:export-xdpi="93.948929"
       inkscape:export-ydpi="93.948929" />
    <path
       style="fill:#c8beb7;fill-opacity:1;stroke-width:0.64645344;filter:url(#filter6171-4)"
       id="path4915-9-1"
       sodipodi:type="arc"
       sodipodi:cx="-271.54584"
       sodipodi:cy="149.46722"
       sodipodi:rx="15.86123"
       sodipodi:ry="18.174328"
       sodipodi:start="0"
       sodipodi:end="6.2775642"
       d="m -255.68461,149.46722 a 15.86123,18.174328 0 0 1 -15.83894,18.17431 15.86123,18.174328 0 0 1 -15.88345,-18.12323 15.86123,18.174328 0 0 1 15.79429,-18.22524 15.86123,18.174328 0 0 1 15.92785,18.072 l -15.86098,0.10216 z"
       transform="matrix(0.50941987,0,0,0.30526631,-103.30929,113.2723)" />
    <path
       style="fill:#c8beb7;fill-opacity:1;stroke-width:0.64645344;filter:url(#filter6171-1)"
       id="path4915-9-0"
       sodipodi:type="arc"
       sodipodi:cx="-271.54584"
       sodipodi:cy="149.46722"
       sodipodi:rx="15.86123"
       sodipodi:ry="18.174328"
       sodipodi:start="0"
       sodipodi:end="6.2775642"
       d="m -255.68461,149.46722 a 15.86123,18.174328 0 0 1 -15.83894,18.17431 15.86123,18.174328 0 0 1 -15.88345,-18.12323 15.86123,18.174328 0 0 1 15.79429,-18.22524 15.86123,18.174328 0 0 1 15.92785,18.072 l -15.86098,0.10216 z"
       transform="matrix(0.50941987,0,0,0.30526631,-85.032856,113.2723)" />
    <path
       style="fill:#c8beb7;fill-opacity:1;stroke-width:0.64645344;filter:url(#filter6171-3)"
       id="path4915-9-4"
       sodipodi:type="arc"
       sodipodi:cx="-271.54584"
       sodipodi:cy="149.46722"
       sodipodi:rx="15.86123"
       sodipodi:ry="18.174328"
       sodipodi:start="0"
       sodipodi:end="6.2775642"
       d="m -255.68461,149.46722 a 15.86123,18.174328 0 0 1 -15.83894,18.17431 15.86123,18.174328 0 0 1 -15.88345,-18.12323 15.86123,18.174328 0 0 1 15.79429,-18.22524 15.86123,18.174328 0 0 1 15.92785,18.072 l -15.86098,0.10216 z"
       transform="matrix(0.50941987,0,0,0.30526631,-64.495164,113.2723)" />
    <path
       style="fill:#c8beb7;fill-opacity:1;stroke-width:0.64645344;filter:url(#filter6171-7)"
       id="path4915-9-9"
       sodipodi:type="arc"
       sodipodi:cx="-271.54584"
       sodipodi:cy="149.46722"
       sodipodi:rx="15.86123"
       sodipodi:ry="18.174328"
       sodipodi:start="0"
       sodipodi:end="6.2775642"
       d="m -255.68461,149.46722 a 15.86123,18.174328 0 0 1 -15.83894,18.17431 15.86123,18.174328 0 0 1 -15.88345,-18.12323 15.86123,18.174328 0 0 1 15.79429,-18.22524 15.86123,18.174328 0 0 1 15.92785,18.072 l -15.86098,0.10216 z"
       transform="matrix(0.50941987,0,0,0.30526631,-43.067515,113.2723)" />
    <path
       style="fill:#c8beb7;fill-opacity:1;stroke-width:0.64645344;filter:url(#filter6171-4-7)"
       id="path4915-9-1-1"
       sodipodi:type="arc"
       sodipodi:cx="-271.54584"
       sodipodi:cy="149.46722"
       sodipodi:rx="15.86123"
       sodipodi:ry="18.174328"
       sodipodi:start="0"
       sodipodi:end="6.2775642"
       d="m -255.68461,149.46722 a 15.86123,18.174328 0 0 1 -15.83894,18.17431 15.86123,18.174328 0 0 1 -15.88345,-18.12323 15.86123,18.174328 0 0 1 15.79429,-18.22524 15.86123,18.174328 0 0 1 15.92785,18.072 l -15.86098,0.10216 z"
       transform="matrix(0.50941987,0,0,0.30526631,-22.772285,113.2723)" />
    <path
       style="fill:#c8beb7;fill-opacity:1;stroke-width:0.64645344;filter:url(#filter6171-1-7)"
       id="path4915-9-0-9"
       sodipodi:type="arc"
       sodipodi:cx="-271.54584"
       sodipodi:cy="149.46722"
       sodipodi:rx="15.86123"
       sodipodi:ry="18.174328"
       sodipodi:start="0"
       sodipodi:end="6.2775642"
       d="m -255.68461,149.46722 a 15.86123,18.174328 0 0 1 -15.83894,18.17431 15.86123,18.174328 0 0 1 -15.88345,-18.12323 15.86123,18.174328 0 0 1 15.79429,-18.22524 15.86123,18.174328 0 0 1 15.92785,18.072 l -15.86098,0.10216 z"
       transform="matrix(0.50941987,0,0,0.30526631,-3.5951561,113.2723)" />
    <g
       id="g3797-4"
       style="fill:#2b1100;filter:url(#filter4740-7)"
       transform="matrix(0.41220467,0,0,0.28033075,-353.74469,85.277343)">
      <rect
         y="303.48505"
         x="-40.713982"
         height="99.668427"
         width="301.29761"
         id="rect3791-6"
         style="fill:#2b1100;stroke-width:0.58277428" />
      <path
         d="M 224.08363,394.53027 A 114.14881,61.219704 0 0 1 163.34646,448.63471 114.14881,61.219704 0 0 1 45.769946,445.16254 114.14881,61.219704 0 0 1 -3.5238977,387.80877 l 113.4587177,6.7215 z"
         sodipodi:end="3.2516076"
         sodipodi:start="0"
         sodipodi:ry="61.219704"
         sodipodi:rx="114.14881"
         sodipodi:cy="394.53027"
         sodipodi:cx="109.93482"
         sodipodi:type="arc"
         id="path3793-5"
         style="fill:#2b1100;stroke-width:0.3467443" />
    </g>
    <circle
       style="fill:#803300;fill-opacity:1;stroke-width:0.15999563"
       id="path11268"
       cx="-395.8743"
       cy="86.248093"
       inkscape:export-xdpi="93"
       inkscape:export-ydpi="93"
       r="10.583333" />
    <circle
       style="fill:#e8dfc7;fill-opacity:1;stroke-width:0.1371391"
       id="path11268-1"
       cx="-395.8743"
       cy="86.248093"
       inkscape:export-xdpi="93"
       inkscape:export-ydpi="93"
       r="9.0714283" />
    <g
       id="g11386"
       transform="matrix(0.45782523,0,0,0.62821929,-210.5713,-6.6549008)"
       inkscape:export-xdpi="93"
       inkscape:export-ydpi="93">
      <rect
         ry="0.58813"
         y="87.822144"
         x="-411.70798"
         height="7.8421335"
         width="1.9949737"
         id="rect11343"
         style="fill:#803300;fill-opacity:1;stroke-width:0.13913491" />
      <path
         inkscape:connector-curvature="0"
         id="path11268-3"
         d="m -421.59588,91.984401 a 10.885403,10.697483 0 0 0 5.44261,9.264429 10.885403,10.697483 0 0 0 10.88555,0 10.885403,10.697483 0 0 0 5.44261,-9.264429 h -1.99485 a 8.89043,7.7566833 0 0 1 -0.0443,0.774562 8.89043,7.7566833 0 0 1 -0.13276,0.766665 8.89043,7.7566833 0 0 1 -0.21986,0.751186 8.89043,7.7566833 0 0 1 -0.30473,0.728443 8.89043,7.7566833 0 0 1 -0.38669,0.698119 8.89043,7.7566833 0 0 1 -0.46448,0.660841 8.89043,7.7566833 0 0 1 -0.53776,0.61725 8.89043,7.7566833 0 0 1 -0.60592,0.567338 8.89043,7.7566833 0 0 1 -0.66763,0.511742 8.89043,7.7566833 0 0 1 -0.72292,0.451092 8.89043,7.7566833 0 0 1 -0.35808,0.190481 8.89043,7.7566833 0 0 1 -0.79106,0.353481 8.89043,7.7566833 0 0 1 -0.82739,0.283038 8.89043,7.7566833 0 0 1 -0.85535,0.209435 8.89043,7.7566833 0 0 1 -0.87528,0.133938 8.89043,7.7566833 0 0 1 -0.88653,0.05717 8.89043,7.7566833 0 0 1 -0.88814,-0.02053 8.89043,7.7566833 0 0 1 -0.8817,-0.09793 8.89043,7.7566833 0 0 1 -0.86596,-0.174055 8.89043,7.7566833 0 0 1 -0.84185,-0.248606 8.89043,7.7566833 0 0 1 -0.80906,-0.320628 8.89043,7.7566833 0 0 1 -0.36805,-0.17532 8.89043,7.7566833 0 0 1 -0.7467,-0.420765 8.89043,7.7566833 0 0 1 -0.69432,-0.483629 8.89043,7.7566833 0 0 1 -0.63579,-0.541751 8.89043,7.7566833 0 0 1 -0.57056,-0.594506 8.89043,7.7566833 0 0 1 -0.49984,-0.641256 8.89043,7.7566833 0 0 1 -0.42398,-0.681376 8.89043,7.7566833 0 0 1 -0.34362,-0.714859 8.89043,7.7566833 0 0 1 -0.26036,-0.741395 8.89043,7.7566833 0 0 1 -0.17391,-0.760346 8.89043,7.7566833 0 0 1 -0.0865,-0.77172 8.89043,7.7566833 0 0 1 -0.01,-0.366116 z"
         style="fill:#803300;fill-opacity:1;stroke-width:0.16313557" />
    </g>
    <g
       id="g11180"
       transform="matrix(0.25207452,-0.21866093,0.23372882,0.20274704,-339.1076,-18.729934)"
       style="fill:#803300;fill-opacity:1"
       inkscape:export-xdpi="93"
       inkscape:export-ydpi="93">
      <path
         inkscape:connector-curvature="0"
         id="rect6757"
         d="m -352.65025,113.49987 c -0.31184,0 -0.62368,0.15791 -0.86263,0.4737 l -1.35636,1.79263 c -0.47789,0.63159 -0.47789,1.64852 0,2.28011 l 0.39125,0.51709 h 3.68478 l 0.37662,-0.49774 c 0.47789,-0.6316 0.47789,-1.64853 0,-2.28013 l -1.37104,-1.81196 c -0.23894,-0.31579 -0.55078,-0.4737 -0.86262,-0.4737 z"
         style="fill:#803300;fill-opacity:1;stroke-width:0.01459529" />
      <path
         sodipodi:nodetypes="ccccc"
         inkscape:connector-curvature="0"
         id="rect6762"
         d="m -355.96941,122.4777 h 6.653 l 2,3.98858 h -10.653 z"
         style="fill:#803300;fill-opacity:1;stroke-width:0.01833277" />
      <path
         sodipodi:nodetypes="ccccc"
         inkscape:connector-curvature="0"
         id="rect11011"
         d="m -354.61958,119.50834 h 3.67881 l 1.64722,1.827 -6.69872,0.0218 z"
         style="fill:#803300;fill-opacity:1;stroke-width:0.0060476" />
      <rect
         ry="1.3229166"
         y="127.60022"
         x="-358.37585"
         height="14.243324"
         width="11.465911"
         id="rect6762-2"
         style="fill:#803300;fill-opacity:1;stroke-width:0.04631221" />
      <rect
         rx="1.0394346"
         ry="4.6959033"
         y="142.92903"
         x="-355.65878"
         height="16.677031"
         width="6.0317426"
         id="rect6762-2-8-5"
         style="fill:#803300;fill-opacity:1;stroke-width:0.04967798" />
    </g>
    <circle
       style="fill:#e8dfc7;fill-opacity:1;stroke-width:0.15999563"
       id="path11268-5"
       cx="-507.69196"
       cy="93.52977"
       inkscape:export-xdpi="93"
       inkscape:export-ydpi="93"
       r="10.583333" />
    <circle
       style="fill:#803300;fill-opacity:1;stroke-width:0.1371391"
       id="path11268-1-0"
       cx="-507.69196"
       cy="93.52977"
       inkscape:export-xdpi="93"
       inkscape:export-ydpi="93"
       r="9.0714283" />
    <g
       id="g11471"
       transform="matrix(0.17148918,0,0,0.14718066,-414.39722,130.75889)"
       inkscape:export-xdpi="93"
       inkscape:export-ydpi="93">
      <ellipse
         ry="17.386904"
         rx="6.2366071"
         cy="-7.8255801"
         cx="538.51672"
         transform="scale(-1)"
         id="path11436"
         style="fill:#e8dfc7;fill-opacity:1;stroke-width:0.23979899" />
      <path
         inkscape:connector-curvature="0"
         id="path11268-3-0"
         d="m -553.51671,12.361294 a 14.999998,24.288046 0 0 0 7.49987,21.034378 14.999998,24.288046 0 0 0 15.00019,0 14.999998,24.288046 0 0 0 7.49989,-21.034378 h -2.74889 a 12.250941,17.611122 0 0 1 -0.0611,1.758602 12.250941,17.611122 0 0 1 -0.18294,1.74067 12.250941,17.611122 0 0 1 -0.30296,1.705527 12.250941,17.611122 0 0 1 -0.41992,1.653891 12.250941,17.611122 0 0 1 -0.53286,1.585038 12.250941,17.611122 0 0 1 -0.64004,1.500406 12.250941,17.611122 0 0 1 -0.74103,1.401431 12.250941,17.611122 0 0 1 -0.83495,1.28811 12.250941,17.611122 0 0 1 -0.91999,1.161882 12.250941,17.611122 0 0 1 -0.99618,1.024179 12.250941,17.611122 0 0 1 -0.49344,0.432475 12.250941,17.611122 0 0 1 -1.09007,0.80256 12.250941,17.611122 0 0 1 -1.14013,0.642622 12.250941,17.611122 0 0 1 -1.17867,0.475512 12.250941,17.611122 0 0 1 -1.20613,0.304099 12.250941,17.611122 0 0 1 -1.22163,0.129793 12.250941,17.611122 0 0 1 -1.22385,-0.04662 12.250941,17.611122 0 0 1 -1.21497,-0.222345 12.250941,17.611122 0 0 1 -1.1933,-0.395182 12.250941,17.611122 0 0 1 -1.16005,-0.564447 12.250941,17.611122 0 0 1 -1.11488,-0.727968 12.250941,17.611122 0 0 1 -0.50717,-0.398056 12.250941,17.611122 0 0 1 -1.02894,-0.955322 12.250941,17.611122 0 0 1 -0.95677,-1.098053 12.250941,17.611122 0 0 1 -0.87612,-1.230016 12.250941,17.611122 0 0 1 -0.78623,-1.349794 12.250941,17.611122 0 0 1 -0.68877,-1.455936 12.250941,17.611122 0 0 1 -0.58424,-1.547028 12.250941,17.611122 0 0 1 -0.4735,-1.623047 12.250941,17.611122 0 0 1 -0.35878,-1.683296 12.250941,17.611122 0 0 1 -0.23965,-1.726326 12.250941,17.611122 0 0 1 -0.11913,-1.752147 12.250941,17.611122 0 0 1 -0.0145,-0.831247 z"
         style="fill:#e8dfc7;fill-opacity:1;stroke-width:0.28855428" />
      <rect
         ry="4.1577382"
         y="32.416668"
         x="-542.6745"
         height="23.8125"
         width="8.3154764"
         id="rect11461"
         style="fill:#e8dfc7;fill-opacity:1;stroke-width:0.26458332" />
      <rect
         ry="7.9375"
         y="47.637394"
         x="-565.73102"
         height="15.875"
         width="54.42857"
         id="rect11465"
         style="fill:#e8dfc7;fill-opacity:1;stroke-width:0.24642777" />
    </g>
    <g
       id="g11471-0"
       transform="matrix(0.17148918,0,0,0.14718066,-325.68082,97.175745)"
       inkscape:export-xdpi="93"
       inkscape:export-ydpi="93"
       style="fill:#e8dfc7;fill-opacity:1">
      <ellipse
         ry="17.386904"
         rx="6.2366071"
         cy="-7.8255801"
         cx="538.51672"
         transform="scale(-1)"
         id="path11436-5"
         style="fill:#e8dfc7;fill-opacity:1;stroke-width:0.23979899" />
      <path
         inkscape:connector-curvature="0"
         id="path11268-3-0-8"
         d="m -553.51671,12.361294 a 14.999998,24.288046 0 0 0 7.49987,21.034378 14.999998,24.288046 0 0 0 15.00019,0 14.999998,24.288046 0 0 0 7.49989,-21.034378 h -2.74889 a 12.250941,17.611122 0 0 1 -0.0611,1.758602 12.250941,17.611122 0 0 1 -0.18294,1.74067 12.250941,17.611122 0 0 1 -0.30296,1.705527 12.250941,17.611122 0 0 1 -0.41992,1.653891 12.250941,17.611122 0 0 1 -0.53286,1.585038 12.250941,17.611122 0 0 1 -0.64004,1.500406 12.250941,17.611122 0 0 1 -0.74103,1.401431 12.250941,17.611122 0 0 1 -0.83495,1.28811 12.250941,17.611122 0 0 1 -0.91999,1.161882 12.250941,17.611122 0 0 1 -0.99618,1.024179 12.250941,17.611122 0 0 1 -0.49344,0.432475 12.250941,17.611122 0 0 1 -1.09007,0.80256 12.250941,17.611122 0 0 1 -1.14013,0.642622 12.250941,17.611122 0 0 1 -1.17867,0.475512 12.250941,17.611122 0 0 1 -1.20613,0.304099 12.250941,17.611122 0 0 1 -1.22163,0.129793 12.250941,17.611122 0 0 1 -1.22385,-0.04662 12.250941,17.611122 0 0 1 -1.21497,-0.222345 12.250941,17.611122 0 0 1 -1.1933,-0.395182 12.250941,17.611122 0 0 1 -1.16005,-0.564447 12.250941,17.611122 0 0 1 -1.11488,-0.727968 12.250941,17.611122 0 0 1 -0.50717,-0.398056 12.250941,17.611122 0 0 1 -1.02894,-0.955322 12.250941,17.611122 0 0 1 -0.95677,-1.098053 12.250941,17.611122 0 0 1 -0.87612,-1.230016 12.250941,17.611122 0 0 1 -0.78623,-1.349794 12.250941,17.611122 0 0 1 -0.68877,-1.455936 12.250941,17.611122 0 0 1 -0.58424,-1.547028 12.250941,17.611122 0 0 1 -0.4735,-1.623047 12.250941,17.611122 0 0 1 -0.35878,-1.683296 12.250941,17.611122 0 0 1 -0.23965,-1.726326 12.250941,17.611122 0 0 1 -0.11913,-1.752147 12.250941,17.611122 0 0 1 -0.0145,-0.831247 z"
         style="fill:#e8dfc7;fill-opacity:1;stroke-width:0.28855428" />
      <rect
         ry="4.1577382"
         y="32.416668"
         x="-542.6745"
         height="23.8125"
         width="8.3154764"
         id="rect11461-2"
         style="fill:#e8dfc7;fill-opacity:1;stroke-width:0.26458332" />
      <rect
         ry="7.9375"
         y="47.637394"
         x="-565.73102"
         height="15.875"
         width="54.42857"
         id="rect11465-4"
         style="fill:#e8dfc7;fill-opacity:1;stroke-width:0.24642777" />
    </g>
    <g
       transform="translate(-24.957482,4.9760016)"
       id="g11505-9">
      <g
         style="fill:#803300"
         inkscape:export-ydpi="93"
         inkscape:export-xdpi="93"
         transform="matrix(0.17148918,0,0,0.14718066,-325.68082,97.175745)"
         id="g11471-0-7">
        <ellipse
           style="fill:#803300;fill-opacity:1;stroke-width:0.23979899"
           id="path11436-5-5"
           transform="scale(-1)"
           cx="538.51672"
           cy="-7.8255801"
           rx="6.2366071"
           ry="17.386904" />
        <path
           style="fill:#803300;fill-opacity:1;stroke-width:0.28855428"
           d="m -553.51671,12.361294 a 14.999998,24.288046 0 0 0 7.49987,21.034378 14.999998,24.288046 0 0 0 15.00019,0 14.999998,24.288046 0 0 0 7.49989,-21.034378 h -2.74889 a 12.250941,17.611122 0 0 1 -0.0611,1.758602 12.250941,17.611122 0 0 1 -0.18294,1.74067 12.250941,17.611122 0 0 1 -0.30296,1.705527 12.250941,17.611122 0 0 1 -0.41992,1.653891 12.250941,17.611122 0 0 1 -0.53286,1.585038 12.250941,17.611122 0 0 1 -0.64004,1.500406 12.250941,17.611122 0 0 1 -0.74103,1.401431 12.250941,17.611122 0 0 1 -0.83495,1.28811 12.250941,17.611122 0 0 1 -0.91999,1.161882 12.250941,17.611122 0 0 1 -0.99618,1.024179 12.250941,17.611122 0 0 1 -0.49344,0.432475 12.250941,17.611122 0 0 1 -1.09007,0.80256 12.250941,17.611122 0 0 1 -1.14013,0.642622 12.250941,17.611122 0 0 1 -1.17867,0.475512 12.250941,17.611122 0 0 1 -1.20613,0.304099 12.250941,17.611122 0 0 1 -1.22163,0.129793 12.250941,17.611122 0 0 1 -1.22385,-0.04662 12.250941,17.611122 0 0 1 -1.21497,-0.222345 12.250941,17.611122 0 0 1 -1.1933,-0.395182 12.250941,17.611122 0 0 1 -1.16005,-0.564447 12.250941,17.611122 0 0 1 -1.11488,-0.727968 12.250941,17.611122 0 0 1 -0.50717,-0.398056 12.250941,17.611122 0 0 1 -1.02894,-0.955322 12.250941,17.611122 0 0 1 -0.95677,-1.098053 12.250941,17.611122 0 0 1 -0.87612,-1.230016 12.250941,17.611122 0 0 1 -0.78623,-1.349794 12.250941,17.611122 0 0 1 -0.68877,-1.455936 12.250941,17.611122 0 0 1 -0.58424,-1.547028 12.250941,17.611122 0 0 1 -0.4735,-1.623047 12.250941,17.611122 0 0 1 -0.35878,-1.683296 12.250941,17.611122 0 0 1 -0.23965,-1.726326 12.250941,17.611122 0 0 1 -0.11913,-1.752147 12.250941,17.611122 0 0 1 -0.0145,-0.831247 z"
           id="path11268-3-0-8-9"
           inkscape:connector-curvature="0" />
        <rect
           style="fill:#803300;fill-opacity:1;stroke-width:0.26458332"
           id="rect11461-2-9"
           width="8.3154764"
           height="23.8125"
           x="-542.6745"
           y="32.416668"
           ry="4.1577382" />
        <rect
           style="fill:#803300;fill-opacity:1;stroke-width:0.24642777"
           id="rect11465-4-5"
           width="54.42857"
           height="15.875"
           x="-565.73102"
           y="47.637394"
           ry="7.9375" />
      </g>
    </g>
    <g
       id="g11180-0"
       transform="matrix(0.25207452,-0.21866093,0.23372882,0.20274704,-450.92525,-11.448258)"
       style="fill:#e8dfc7;fill-opacity:1"
       inkscape:export-xdpi="93"
       inkscape:export-ydpi="93">
      <path
         inkscape:connector-curvature="0"
         id="rect6757-5"
         d="m -352.65025,113.49987 c -0.31184,0 -0.62368,0.15791 -0.86263,0.4737 l -1.35636,1.79263 c -0.47789,0.63159 -0.47789,1.64852 0,2.28011 l 0.39125,0.51709 h 3.68478 l 0.37662,-0.49774 c 0.47789,-0.6316 0.47789,-1.64853 0,-2.28013 l -1.37104,-1.81196 c -0.23894,-0.31579 -0.55078,-0.4737 -0.86262,-0.4737 z"
         style="fill:#e8dfc7;fill-opacity:1;stroke-width:0.01459529" />
      <path
         sodipodi:nodetypes="ccccc"
         inkscape:connector-curvature="0"
         id="rect6762-5"
         d="m -355.96941,122.4777 h 6.653 l 2,3.98858 h -10.653 z"
         style="fill:#e8dfc7;fill-opacity:1;stroke-width:0.01833277" />
      <path
         sodipodi:nodetypes="ccccc"
         inkscape:connector-curvature="0"
         id="rect11011-4"
         d="m -354.61958,119.50834 h 3.67881 l 1.64722,1.827 -6.69872,0.0218 z"
         style="fill:#e8dfc7;fill-opacity:1;stroke-width:0.0060476" />
      <rect
         ry="1.3229166"
         y="127.60022"
         x="-358.37585"
         height="14.243324"
         width="11.465911"
         id="rect6762-2-2"
         style="fill:#e8dfc7;fill-opacity:1;stroke-width:0.04631221" />
      <rect
         rx="1.0394346"
         ry="4.6959033"
         y="142.92903"
         x="-355.65878"
         height="16.677031"
         width="6.0317426"
         id="rect6762-2-8-5-5"
         style="fill:#e8dfc7;fill-opacity:1;stroke-width:0.04967798" />
    </g>
    <rect
       style="fill:none;fill-opacity:1;stroke-width:0.26458332"
       id="rect11572"
       width="81.64286"
       height="56.69643"
       x="-483.43152"
       y="137.11606"
       inkscape:export-xdpi="93"
       inkscape:export-ydpi="93" />
    <rect
       style="fill:none;fill-opacity:1;stroke-width:0.26458332"
       id="rect11574"
       width="71.059525"
       height="29.482143"
       x="-272.52084"
       y="-1.6011906" />
    <rect
       style="fill:#8e8e8e;fill-opacity:1;stroke:#000000;stroke-width:0.2656225"
       id="rect11578"
       width="48.001942"
       height="23.811459"
       x="-264.20483"
       y="4.0689721"
       inkscape:export-xdpi="105.49444"
       inkscape:export-ydpi="105.49444" />
    <g
       id="g11584"
       transform="matrix(0.82988407,0,0,0.90687908,-77.497548,16.075044)"
       inkscape:export-xdpi="93"
       inkscape:export-ydpi="93">
      <path
         transform="matrix(0.2152378,0,0,0.17099863,-393.68343,150.53639)"
         d="m -255.68461,149.46722 a 15.86123,18.174328 0 0 1 -15.83894,18.17431 15.86123,18.174328 0 0 1 -15.88345,-18.12323 15.86123,18.174328 0 0 1 15.79429,-18.22524 15.86123,18.174328 0 0 1 15.92785,18.072 l -15.86098,0.10216 z"
         sodipodi:end="6.2775642"
         sodipodi:start="0"
         sodipodi:ry="18.174328"
         sodipodi:rx="15.86123"
         sodipodi:cy="149.46722"
         sodipodi:cx="-271.54584"
         sodipodi:type="arc"
         id="path4915-9"
         style="fill:#c8beb7;fill-opacity:1;stroke:#000000;stroke-width:0.64645344;filter:url(#filter6171)" />
      <circle
         r="3.2709477"
         cy="175.89642"
         cx="-452.28632"
         id="path11580"
         style="fill:none;fill-opacity:1;stroke:#000000;stroke-width:0.07268772" />
    </g>
    <rect
       style="fill:#8e8e8e;fill-opacity:1;stroke:#000000;stroke-width:0.26458332"
       id="rect11586"
       width="282.2366"
       height="240.54257"
       x="-957.89398"
       y="13.694301" />
  </g>
</svg>
